{
  "project_info": {
    "project_number": "547113050633",
    "firebase_url": "https://towkai-2a6e9.firebaseio.com",
    "project_id": "towkai-2a6e9",
    "storage_bucket": "towkai-2a6e9.appspot.com"
  },
  "client": [
    {
      "client_info": {
        "mobilesdk_app_id": "1:547113050633:android:f27223cf69d300a7824ed8",
        "android_client_info": {
          "package_name": "com.towkai.multimedia"
        }
      },
      "oauth_client": [
        {
          "client_id": "547113050633-8572odvp007ig3nqfbnp7ijth2jhhe80.apps.googleusercontent.com",
          "client_type": 3
        }
      ],
      "api_key": [
        {
          "current_key": "AIzaSyCIXO6lEIWwyf6yshkHHIpUJdWlaYYNxsY"
        }
      ],
      "services": {
        "appinvite_service": {
          "other_platform_oauth_client": [
            {
              "client_id": "547113050633-8572odvp007ig3nqfbnp7ijth2jhhe80.apps.googleusercontent.com",
              "client_type": 3
            }
          ]
        }
      }
    }
  ],
  "configuration_version": "1"
}